{
  "A modern media player, using gtk3 and the gstreamer plugin framework.": "A modern media player, using gtk3 and the gstreamer plugin framework.",
  "Are you a downloader? Use Transmission to get new versions of Fedora MATE-Compiz Desktop!": "Are you a downloader? Use Transmission to get new versions of Fedora MATE-Compiz Desktop!",
  "Blueberry": "Blueberry",
  "Blueberry is a gnome-bluetooth based bluetooth configuration tool which integrates very well in almost any desktop environment.": "Blueberry is a gnome-bluetooth based bluetooth configuration tool which integrates very well in almost any desktop environment.",
  "Claws Mail": "Claws Mail",
  "Claws Mail is an easy to configure and full featured email application for the MATE-Compiz Desktop.": "Claws Mail is an easy to configure and full featured email application for the MATE-Compiz Desktop.",
  "DConf Editor": "DConf Editor",
  "Download Now": "Download Now",
  "Exaile": "Exaile",
  "Explore the World Wide Web with Firefox, the full featured web browser.": "Explore the World Wide Web with Firefox, the full featured web browser.",
  "Eye of MATE": "Eye of MATE",
  "Eye of MATE is meant to be a fast and functional image viewer for the MATE-Compiz Desktop.": "Eye of MATE is meant to be a fast and functional image viewer for the MATE-Compiz Desktop.",
  "Fedora MATE-Compiz ships a terminal, the gateway to the real power of any UNIX/Linux machine, called MATE Terminal.": "Fedora MATE-Compiz ships a terminal, the gateway to the real power of any UNIX/Linux machine, called MATE Terminal.",
  "Fedora Mate Compiz Spin": "Fedora Mate Compiz Spin",
  "Fedora Mate-Compiz Image": "Fedora Mate-Compiz Image",
  "FileZilla": "FileZilla",
  "FileZilla is a cross-platform free FTP solution with tons of intuitive tools, helping you to move files quickly between your computer and Web server.": "FileZilla is a cross-platform free FTP solution with tons of intuitive tools, helping you to move files quickly between your computer and Web server.",
  "Firefox": "Firefox",
  "Going Online": "Going Online",
  "Hexchat": "Hexchat",
  "LibreOffice": "LibreOffice",
  "LibreOffice is an integrated office suite. It utilizes free and open standards for its document formats and components.": "LibreOffice is an integrated office suite. It utilizes free and open standards for its document formats and components.",
  "MATE Terminal": "MATE Terminal",
  "Multimedia": "Multimedia",
  "No need to know cryptic commands and config files. Click the options you like to change and choose the settings that make you happy.": "No need to know cryptic commands and config files. Click the options you like to change and choose the settings that make you happy.",
  "Office & Productivity Suite": "Office & Productivity Suite",
  "Parole": "Parole",
  "Screenshot of Fedora Mate-Compiz desktop": "Screenshot of Fedora Mate-Compiz desktop",
  "Simple interface. Powerful music management. Smart Playlists. Advanced track tagging. Automatic album art. Lyrics. Streaming Radio. Podcasts.": "Simple interface. Powerful music management. Smart Playlists. Advanced track tagging. Automatic album art. Lyrics. Streaming Radio. Podcasts.",
  "Stay connected with your friends and colleagues using Hexchat, an easy to use IRC client.": "Stay connected with your friends and colleagues using Hexchat, an easy to use IRC client.",
  "The MATE Compiz spin bundles MATE Desktop with Compiz Fusion. MATE Desktop is a lightweight, powerful desktop designed with productivity and performance in mind. The default windows manager is Marco which is usable for all machines and VMs. Compiz Fusion is a beautiful 3D windowing manager with Emerald and GTK+ theming.\n\nIf you want a powerful, lightweight Fedora desktop with 3D eyecandy you should definitely try the MATE-Compiz spin.": "The MATE Compiz spin bundles MATE Desktop with Compiz Fusion. MATE Desktop is a lightweight, powerful desktop designed with productivity and performance in mind. The default windows manager is Marco which is usable for all machines and VMs. Compiz Fusion is a beautiful 3D windowing manager with Emerald and GTK+ theming.\n\nIf you want a powerful, lightweight Fedora desktop with 3D eyecandy you should definitely try the MATE-Compiz spin.",
  "Transmission": "Transmission",
  "Utilities & Configuration": "Utilities & Configuration",
  "We're so glad you've decided to give Fedora Mate Compiz Spin a try. We know you'll love it.": "We're so glad you've decided to give Fedora Mate Compiz Spin a try. We know you'll love it."
}