{
  "But wait! There's more.": "But wait! There's more.",
  "Need something a bit different? Check out our other downloads below, featuring alternative architectures, torrents and network-based installation images.": "Need something a bit different? Check out our other downloads below, featuring alternative architectures, torrents and network-based installation images.",
  "Other Downloads": "Other Downloads"
}
