{
  "A simple and fast image viewer tool for Sugar. It has standard features, like zoom and rotate.": "A simple and fast image viewer tool for Sugar. It has standard features, like zoom and rotate.",
  "Access the internet with Browse Activity, bookmark sites to research with friends and save sessions to keep organized.": "Access the internet with Browse Activity, bookmark sites to research with friends and save sessions to keep organized.",
  "Browse": "Browse",
  "Chat": "Chat",
  "Chat provides a simple interface for collaborative discussion between two individuals or among a group as large as an entire classroom.": "Chat provides a simple interface for collaborative discussion between two individuals or among a group as large as an entire classroom.",
  "Create a story, poem, report or anything with Write. Use formatting tools to add images or colors and work together with friends.": "Create a story, poem, report or anything with Write. Use formatting tools to add images or colors and work together with friends.",
  "Create real life simulations using shapes, motors, ropes and bolts to explore physics in the world.": "Create real life simulations using shapes, motors, ropes and bolts to explore physics in the world.",
  "Download Now": "Download Now",
  "Download electronic books from all over the web. Explore with ease the classics and modern books from the Internet Archive, Feedbooks, etc.": "Download electronic books from all over the web. Explore with ease the classics and modern books from the Internet Archive, Feedbooks, etc.",
  "Explore reports, documents, books and comics with the Read Activity.": "Explore reports, documents, books and comics with the Read Activity.",
  "Exploring the wider world": "Exploring the wider world",
  "Fedora SOAS Image": "Fedora SOAS Image",
  "Fedora Sugar on a Stick Spin": "Fedora Sugar on a Stick Spin",
  "FotoToon": "FotoToon",
  "Get Books": "Get Books",
  "Getting technical": "Getting technical",
  "Imageviewer": "Imageviewer",
  "Journal": "Journal",
  "Jukebox": "Jukebox",
  "Jukebox is a simple media player to consume different kinds of audio and video files as well as your own creations.": "Jukebox is a simple media player to consume different kinds of audio and video files as well as your own creations.",
  "Labyrinth": "Labyrinth",
  "Learn programming concepts with snap together blocks. Create art, animations and interactive programs in a graphics focused environment.": "Learn programming concepts with snap together blocks. Create art, animations and interactive programs in a graphics focused environment.",
  "Multimedia": "Multimedia",
  "Paint": "Paint",
  "Paint provides the tools to make artistic creations. Use brushes, stamps, shapes, text and images to create beautiful pictures.": "Paint provides the tools to make artistic creations. Use brushes, stamps, shapes, text and images to create beautiful pictures.",
  "Physics": "Physics",
  "Pippy": "Pippy",
  "Portfolio": "Portfolio",
  "Portfolio provides a means to create periodic snapshots in slideshow form of representative work that shows what the learner can do.": "Portfolio provides a means to create periodic snapshots in slideshow form of representative work that shows what the learner can do.",
  "Program applications in a simple environment. The Python backend provides unlimited opportunities within a simple language.": "Program applications in a simple environment. The Python backend provides unlimited opportunities within a simple language.",
  "Read": "Read",
  "Record": "Record",
  "Record is a basic rich-media capture Activity. It lets you capture still images, video, and/or audio.": "Record is a basic rich-media capture Activity. It lets you capture still images, video, and/or audio.",
  "Reflect on what you've learned": "Reflect on what you've learned",
  "Screenshot of Fedora SOAS desktop": "Screenshot of Fedora SOAS desktop",
  "Sugar on a Stick is a Fedora-based operating system featuring the award-winning Sugar Learning Platform and designed to fit on an ordinary USB thumbdrive (\"stick\").\n\nSugar sets aside the traditional \u201coffice-desktop\u201d metaphor, presenting a child-friendly graphical environment. Sugar automatically saves your progress to a \"Journal\" on your stick, so teachers and parents can easily pull up \"all collaborative web browsing sessions done in the past week\" or \"papers written with Daniel and Sarah in the last 24 hours\" with a simple query rather than memorizing complex file/folder structures. Applications in Sugar are known as Activities, some of which are described below.\n\nIt is now deployable for the cost of a stick rather than a laptop; students can take their Sugar on a Stick thumbdrive to any machine - at school, at home, at a library or community center - and boot their customized computing environment without touching the host machine\u2019s hard disk or existing system at all.": "Sugar on a Stick is a Fedora-based operating system featuring the award-winning Sugar Learning Platform and designed to fit on an ordinary USB thumbdrive (\"stick\").\n\nSugar sets aside the traditional \u201coffice-desktop\u201d metaphor, presenting a child-friendly graphical environment. Sugar automatically saves your progress to a \"Journal\" on your stick, so teachers and parents can easily pull up \"all collaborative web browsing sessions done in the past week\" or \"papers written with Daniel and Sarah in the last 24 hours\" with a simple query rather than memorizing complex file/folder structures. Applications in Sugar are known as Activities, some of which are described below.\n\nIt is now deployable for the cost of a stick rather than a laptop; students can take their Sugar on a Stick thumbdrive to any machine - at school, at home, at a library or community center - and boot their customized computing environment without touching the host machine\u2019s hard disk or existing system at all.",
  "The Journal provides an interface into a datastore of everything you've created in Sugar. Bookmarking and commenting tools integrate with the Journal to allow parents and teachers to review a child's learning progress.": "The Journal provides an interface into a datastore of everything you've created in Sugar. Bookmarking and commenting tools integrate with the Journal to allow parents and teachers to review a child's learning progress.",
  "Turtle Blocks": "Turtle Blocks",
  "Understanding and creating content": "Understanding and creating content",
  "Use images and text to create comic strips. FotoToon provides many options to add motion, speech and thought to creations.": "Use images and text to create comic strips. FotoToon provides many options to add motion, speech and thought to creations.",
  "We're so glad you've decided to give Fedora Sugar on a Stick Spin a try. We know you'll love it.": "We're so glad you've decided to give Fedora Sugar on a Stick Spin a try. We know you'll love it.",
  "Write": "Write"
}
